{
  "cviceni": {
    "version": {
      "global": "<%= version %>",
      "content": 1
    },
    "katalog": [
      "test",
      "public"
    ],
    "language": "cs",
    "slug": "jak-obhajit-pisen",
    "nazev": "Jak obhájit píseň?",
    "autor": [
      "Pavla Sýkorová"
    ],
    "klicovaSlova": [
      "Československo 70. léta",
      "perzekuce",
      "dobové perspektivy",
      "tvoříme"
    ],
    "anotace": {
      "ucitel": "Ve cvičení žáci pracují s jednou z písní, která byla citována při soudním procesu s hudební skupinou The Plastic People of the Universe. Žáci se snaží identifikovat, v čem byla píseň odsouzeníhodná z pohledu komunistické obžaloby, a následně na to vypracovávají argumenty obhajoby. K tomu jim pomáhá článek z Rudého práva. Cvičení může být použito k dokreslení výkladu o této hudební skupině a o vzniku Charty 77.",
      "verejna": "Zavřeli členy slavné hudební skupiny za sprostá slova v písničce, anebo šlo ve skutečnosti o něco jiného? Dokázali byste připravit jejich obhajobu? Půjdete na to jako jejich tehdejší advokát, který citoval vulgarismy z Leninových dopisů, nebo zvolíte jinou taktiku?"
    },
    "trvani": 30,
    "funkce": [
      "lupa",
      "cteni",
      "text",
      "audio"
    ],
    "pdf": {
      "doporucenyPostup": "jak-obhajit-pisen.pdf"
    },
    "uvodniObrazek": "jak-obhajit-pisen/pic-00-1280w.jpg",
    "id": 64
  },
  "slajd": [
    {
      "class": "half-slide-previous",
      "zadani": {
        "hlavni": "Poslechněte si píseň kapely The Plastic People of the Universe Včera v neděli.",
        "rozsirujici": ""
      },
      "napoveda": {
        "aktivity": [
          "lupa",
          "audio"
        ],
        "text": "Při kliknutí levým tlačítkem do obrazu lupa přiblíží část obrazu ve výřezu."
      },
      "media": {
        "nastaveni": {
          "vzhled": "normalni",
          "layout": "velka-galerie"
        },
        "soubory": [
          {
            "soubor": "jak-obhajit-pisen/audio-00.mp3",
            "nazev": "Píseň kapely The Plastic People of the Universe",
            "popisek": "Kapela byla v roce 1976 souzena pro údajné výtržnictví. Někteří z členů byli odsouzeni k nepodmíněným trestům (osm, osm, dvanáct a osmnáct měsíců). Včera v neděli byla jednou z písní, kterou použila obžaloba. Zdroj: Archiv ČRo",
            "prepis": "text-00"
          }
        ],
        "galerie": [
          {
            "soubor": "jak-obhajit-pisen/pic-00-1280w.jpg",
            "popisek": "The Plastic People of the Universe. Foto Petr Prokeš. Zdroj: archiv autora"
          }
        ]
      }
    },
    {
      "class": "half-slide-active",
      "zadani": {
        "hlavni": "Čím mohli pobouřit?",
        "rozsirujici": "Členové kapely byli obžalováni z výtržnictví. Pomocí zvětšování a zmenšování charakteristik určete, co podle vás na jejich písních v tehdejší době nejvíce pobuřovalo."
      },
      "napoveda": {
        "aktivity": [
          "word-cloud"
        ],
        "text": "Klikáním na znamenka -/+ zmenšujte či zdůrazňujte důležitost."
      },
      "klicovaSlova": {
        "klicovaSlova": [
          {
            "id": "klicova-slova-1",
            "funkce": "wordcloud",
            "tagy": [
              {
                "text": "vulgární"
              },
              {
                "text": "ukazující zhnusený vztah ke světu"
              },
              {
                "text": "protispolečenské"
              },
              {
                "text": "protisocialistické"
              },
              {
                "text": "dekadentní a nihilistické"
              },
              {
                "text": "ukazující úpadek kultury"
              }
            ]
          }
        ]
      }
    },
    {
      "class": "half-slide-previous",
      "zadani": {
        "hlavni": "Co obžaloba písni vytýkala?",
        "rozsirujici": "Podívejte se, jak o procesu informoval dobový stranický tisk. Vyznačte informace, které považujete za klíčové pro zdůvodnění odsouzení členů skupiny."
      },
      "napoveda": {
        "aktivity": [
          "text-editor"
        ],
        "text": "Levým tlačítkem myši zabarvíte zvolené slovo nebo slovní spojení. Otevře se vám nabídka, v níž zvolíte označovanou kategorii. Křížkem lze označení smazat."
      },
      "textovyEditor": {
        "nastaveni": {
          "vzhled": "normalni",
          "layout": "velka-galerie"
        },
        "galerie": [
          {
            "soubor": "jak-obhajit-pisen/pic-01-1280w.jpg",
            "popisek": "Zdroj: Rudé právo, 25. 9. 1976"
          }
        ],
        "texty": [
          {
            "id": 1,
            "text": "text-01",
            "funkce": "zvyraznovani",
            "menu": [
              {
                "title": "Důležitá pasáž",
                "classes": "text-red",
                "command": "toggle-class",
                "commandName": "dulezite-pasaze",
                "commandOptions": {
                  "toggleClass": "node-selected node-text-red",
                  "closeBtn": true,
                  "comments": false,
                  "commentsClass": "text-red",
                  "showCommentsOnInit": true
                }
              }
            ]
          }
        ]
      }
    },
    {
      "class": "half-slide-active column",
      "zadani": {
        "hlavni": "Jak obhájit píseň?",
        "rozsirujici": ""
      },
      "napoveda": {
        "aktivity": [
          "text"
        ],
        "text": "Do boxu pro text zapisujete odpověď na otázku, nebo jiný komentář (dle zadání)."
      },
      "uzivatelskyText": {
        "otazky": [
          {
            "id": "text-1",
            "zadani": "Na jakých argumentech byste postavili obhajobu?",
            "instrukce": "Myslím, že…",
            "minDelka": 10,
            "maxDelka": 999,
            "vyska": 10
          }
        ]
      }
    }
  ]
}